module grx

go 1.20

require (
	github.com/op/go-logging v0.0.0-20160315200505-970db520ece7
	github.com/urfave/cli v1.22.14
)

require (
	github.com/cpuguy83/go-md2man/v2 v2.0.2 // indirect
	github.com/russross/blackfriday/v2 v2.1.0 // indirect
)
